MH16006,Carlos Alfredo,Moto Herrera,7
LL09069,ZAYDA IVONNE,LEIVA,6.5
PH14021,EDWIN ALEXANDER,PINEDA HIDALGO,6.8
AV10001,MIGUEL ERNESTO,ALFARO VIDES,7.47
ER12005,JONATHAN ALEXANDER,ESCOBAR REYES,9.04
RM12042,CESAR ERNESTO,RIVAS MARTINEZ,7.76
MM13014,KEVIN CHRISTOPHER,MEJ,7.46
RM16051,Carlos Enrique,Rivas Mart,7.09
AL10051,Mainor Eliseo,Artero López,7.46
CL16015,Gerson Adonay,Cardona Linares,8.45
CA02032,JULIO ERNESTO,CORTEZ ARGUETA,7.45
TH15003,Kevin Alexander,Toloza Hernandez,8.37
AP11048,RONALD VLADIMIR,AQUINO P,6.85
AB13027,DANIELA MICHELLE,ANDRADE BERNAL,7.25
LT07001,SAUL ERNESTO ,LUCERO TEJADA ,8.65
EL15008,Jorge Alberto,Estrada L,8.52
DT11002,JOSSELYN FABIOLA,DUARTE TORRES,6.83
SM15006,Luis Fernando,Sorto Merino,8.04
DS13013,ELIAS ARTURO,DIAZ SORTO,7.41
TF05009,LUIS ARMANDO,TORRES FUNES,8.18
SG11010,CARLOS MOIS,SEGOVIA GUATEMALA,7.51
PG99023,MAYRA JEANETT,POLIO GUEVARA,6.93
MZ13001,JORGE ERNESTO,MARROQUIN ZUNIGA,8.21
FM13010,WILMER ALFREDO,FLORES MELCHOR,7.76
CQ15007,Caleb David,Campos Quintanilla,8.13
RC10014,JOAO FIDEL,RAM,6.96
AM10066,ERICK ALBERTO,AVIL,8.33
CF13001,VANESSA JEANNETTE,CASTRO FIGUEROA,7.91
PF14002,IVANNIA VALENTINA,PUBILL FLORES,8.58
CD14003,ROBERTO ERNESTO,CASTRO D,6.54
AA10016,FELIPE ORLANDO,AYALA AMAYA,7.12
PL14002,WILLIAM ORLANDO,P,7.29
MP06013,KARLA PATRICIA ,MARTINEZ PORTILLO ,7.51
VH14006,ERICK ANTONIO,VENTURA HURTADO,9.13
HC12010,MOIS,HERRERA CRIOLLO,6.41
LJ11001,CARLOS ALBERTO,LUNA JU,6.98
EA08015,Diego Jos,El,7.54
GO14002,MAURICIO ERNESTO,GRANADOS ORELLANA,8.35
NL12004,BRYAN ANTONIO,NOVOA L,6.71
OA16010,Anthony Ariel,Orantes Aguilar,7.31
RO15007,Kevin Gonzalo,Rodr,7.29
CO15009,Omar Enrique,Cruz Orellana,7.45
GV09016,LORENZO VICENTE,GRIMALDI VELASCO,8.15
RR13009,DAVID MAURICIO,ROMERO RIVAS,7.47
JL09002,OSCAR DANIEL,JIMENEZ LARA,6.7
GO13005,ALEJANDRO STEFANO,GRANADOS ORELLANA,7.87
PR07005,RAMON FERNANDO ,PANAME,8
PF15002,Christian Alexis,P,6.73
LA12019,MARCELA ELIZABETH,L,7.01
MF16017,Roberto Mauricio,Mu,7.89
PA10007,LIGIA ELENA,PALMA AVALOS,8.58
PP14005,GUILLERMO EZEQUIEL,PAREDES PASTRAN,8.18
PL13008,KENNEDY SAMUEL,P,6.88
GC14057,ARLENY RAQUEL,GARC,7
MN14002,DAVID EDUARDO,MAGA,7.26
MR13087,Javier Ernesto,Marroqu,7.17
AP13012,ERICK WILFREDO,ACOSTA PLEITEZ,7.39
MA14042,EDWIN JOS,MOLINA ALEM,7.94
IC02002,JUANA MARICELA,IRAHETA COTO,7.47
LH16001,Douglas Edenilson,Leiva Hern,7.59
MS04016,NESTOR DANIEL,MARTINEZ SANCHEZ,7.89
SP16001,Manuel Enrique,Su,8.78
VC10006,ERIKA YAMILETH,VALENCIA CABRERA,8.73
RC15076,Yessica Guadalupe,Rivera Campos,7.02
SC12054,CRISTIAN ENMANUEL,SOSA CARABANTES,7.65
RM11010,MELVIN RENE,RIVERA MACHADO,7.69
LR13040,JENNIFER BEATRIZ,L,8.24
TA14013,RODRIGO MAURICIO,TORRES ARTIAGA,8.53
RF08018,DANIEL ALFREDO,RAMIREZ FUENTES,7.55
MG11013,SHARYL JEANNINE,MENDOZA GUARDADO,7.77
CC13044,CARLOS ALFREDO,C,7.72
CE10003,JOHAM VANWILLIAM,CRUZ ESPINAL,7.87
OE10006,LORENA MARGARITA,ORDO,8.17
RA04001,ARMIDA AZUCENA,RAMIREZ ALAS,7.88
BP13004,CARLOS EDUARDO,BERNAL PEREZ,7.7
LC08029,KARLA ODALIS,LINARES CORDERO,7.69
HM15012,Kevin Alexander,Hern,7.79
MM03035,FRANCIS AMILCAR,MENJIVAR ,7.77
OD08004,WILFREDO,ORELLANA DUE,8.49
AQ16002,Paola Ren,Aguilar Quevedo,7.28
QF14002,JOS,QUIJADA FIGUEROA,9.01
SM16021,Francisco Alexander,Santana Mendez,6.83
PP07005,FRANKLIN STANLEY ,PORTILLO PORTILLO ,8.67
DR10025,LORENA ASTRID,DUR,7.6
MM11027,MAURICIO ERNESTO,MORALES MORALES,7.03
DC13003,DANIEL ALEJANDRO,D,8.7
AL14016,MARIO ELIEZER,ANDRADE LOPEZ,7.31
SR13073,Nelson Alejandro,Saz Rivera,8.29
OO15004,Juan Carlos,Orellana Orellana,7
UR09008,CARLOS ANTONIO,UMA,8.22
LG14001,LORENA ESMERALDA,L,8.42
MH10006,PEDRO ANTONIO,MIRA HERNANDEZ,8.2
VA11008,GABRIELA DENISSE,VEL,7.63
BL06001,Kevin Alexis ,Beltr,7.33
SR11038,RODRIGO DANIEL,SEGOVIA ROMERO,7.89
GR09071,HAMMER ABISAI,GARCIA RAMIREZ,8.75
GG16062,Francisco David,G,7.24
RM12016,MILTON EL,RIVERA MOLINA,7.8
FE06001,JUAN FRANCISCO ,FUENTES ELIAS ,7.68
LL02018,SANTIAGO ERNESTO,LOPEZ LARA,6.47
FB12001,M,FLORES BONILLA,7.3
MR07075,DEYSI TATIANA ,MARTINEZ RIVAS ,7.41
MM14089,CARLOS ANTONIO,MATA MEZA,7.36
FE11002,MOIS,FLORES ESCOBAR,7.83
HG04012,HECTOR WALTER,HERNANDEZ GUARDADO,6.62
MB14008,CHRISTIAN LISANDRO,MENDOZA BAUTISTA,6.68
SM14033,ERICK ALEXANDER,SANDOVAL MARTINEZ,7.72
CA15057,Josu,Cortez Aguilar,7.47
CO13024,German Arcenio,Cruz Ortega,7.86
MG04047,VICTOR GERARDO,MEZA GARCIA,7.51
VD16006,Roberto Eliezer,Ventura Dominguez,8
RY16001,Rene Eduardo,Reyes Yanes,7.67
AV12013,CELINA ABIGAIL,ALFARO VISCARRA,7.36
RH16005,Michelle Alejandra,Romero Hern,6.85
QC10001,DENNIS ALEXIS,QUIJANO CUSTODIO,7.46
VF10009,CARLOS EMILIO,VILLACORTA FERRER,7.03
OE15002,Jason Alcides,Orantes Escobar,7.64
RM14033,JOS,REYES MINA,7.13
FL12005,Wilfredo Jos,Flamenco Lemus,8.1
QF13001,MARVIN AR,QUIJADA FIGUEROA,7.81
VR14008,MARVIN ENRIQUE,V,7.75
PC09069,JOSUE CRISTIAN,PE,8
AM10014,RICARDO,ACOSTA MORALES,6.91
CA03060,SILVIA AMINTA,COTO AYALA,8.11
LG09020,EDUARDO ALEXIS,LANDAVERDE GONZALEZ,8.84
CM12036,CRISTIAN RENE,CASTILLO MENJIVAR,7.14
HC11013,GUSTAVO ERNESTO,HENR,7.37
HF08001,ROSALIO JOSUE,HERNANDEZ FRANCO,8.37
VA13014,JOCELINE ILIANA,V,8.27
PM10037,KIRIO WALDO,PORTILLO MENDOZA,8.28
AH12014,DAVID JOSU,ALVARADO HERN,7.94
RM16068,Samantha Alexandra,Romero Mart,7.93
HP16014,Carlos Omar,Hern,7.28
QP15009,Erick Alexander,Quintanilla Pe,6.99
OG11024,EDUARDO ANTONIO,ORTIZ GARCIA,7.49
MR13023,DAVID ARMANDO,MEJIA RIVERA,6.61
MS11053,ILICH DANIEL MANRIQUE,MORALES S,6.97
RV15036,ANA SILVIA,RODR,8.41
MC13040,BRYAN ARTHUR,MIRANDA CHAMAGUA,8.32
GS08039,EVER JOSUE,GUARDADO SALGUERO,8.31
LG06027,WALTER ENRIQUE ,LANDAVERDE GARCIA ,6.69
MP16001,Miguel Luis,Mart,7.95
GL11032,WENDY CAROLINA,GOMEZ LEMUS,7.65
VM11057,EDGAR DAVID,VASQUEZ MONTENEGRO,8.29
MM14031,NELSON ENRIQUE,MIRANDA MIRANDA,8.16
MC11057,Carlos Alberto,Mart,7.88
AM11015,MANUEL ENRIQUE,ABARCA MIRANDA,6.94
PM09047,ALICIA BEATRIZ,PE,7.12
GS12001,JORGE ERNESTO,GUTI,8.89
MG13016,RA,MEN,6.25
ZR10002,JOS,ZELAYA RODR,8.03
CR04034,VANESSA SKARLET,CASTILLO RIVAS,7.46
PM15007,Jos,Presa Mariona,7.08
SA15003,Luis Felipe,Serrano Amaya,7.93
MM16045,Fredy Rolando,Mart,8.1
CC10017,RICARDO ANTONIO,CAMPOS CORVERA,7.62
CB95015,JUAN CARLOS,CENTENO BORJA,7.98
MM14022,LUIS RODOLFO,MOLINA MOLINA,7.2
BC14026,VILMA ARELY,B,7.03
PC16020,Abraham El,Portillo Castillo,7.66
MH09016,MIGUEL ANGEL,MARCHELLI HERNANDEZ,4.02
CA02004,NEREIRA YAMILETH,CAMPOS AVALOS,7.13
OO10004,ALEJANDRA BEATRIZ,OLMEDO RECINOS,7.71
HM14039,OSCAR ALEJANDRO,HERN,7.49
PL15002,William Alexander,P,6.85
TM15009,Luis Fernando,Torres Martínez,6.87
RH15028,Lev,Reyes Huezo,7.3
LV11002,KEVIN ALEJANDRO,LANDAVERDE VALTE,6.98
MU13002,ALEX ALFONSO,MUNTO UCEDA,8.52
RS07003,EDWIN GERARDO ,RODAS SANTAMARIA ,7.11
CV11051,WILFREDO ALEXANDER,CER,8.89
MH15012,Walter Ernesto,Marroqu,8.1
MO16003,Miguel de Jes,Mendoza Orellana,8.06
ZN07001,MAYRA ELIZABETH ,ZAVALA NAJARRO ,8
DP16002,F,De La Rosa Perdomo,8.25
BR15007,Adonay Absalon,Barahona Ramos,7.64
BT16001,Christhian Danilo,Benavides Tejada,8.53
ZZ06008,GABRIEL ALFONSO ,ZELAYA ,7.95
SH14020,JOS,SOSA HERN,7.87
RP11069,Susana Rebeca,Rivera Palacios,7.12
RD12006,ANA ARGENTINA,RAMOS DE JOMA,6.75
FM06030,RICARDO ARMANDO ,FLAMENCO MONTENEGRO ,7.41
EM11026,VLADIMIR ALBERTO,ESPINOZA MART,7.2
QC09008,OSCAR MARIO,QUINTANILLA CAMPOS,7.25
GZ06001,NANCY AIDA,GARCIA ZEPEDA,7.75
VH14004,MARVIN ANTONIO,V,8.43
BP15001,Ver,Borja P,7.95
NH16001,Francisco Jos,Navas Hern,7.78
RM11125,LESLIE ANDREA,RAMOS MEJIA,7.39
DR15013,Irving Eduardo,De la Cruz Rivas,6.26
SS11034,YONATAN ALEXANDER,SARAVIA SANTOS,7.65
LU10001,JOCELYN CAROLINA,LARA URRUTIA,8.21
RS16036,Josue Samuel,Ramos Serrano,6.9
LM11004,JOSÉ VICENTE,LINARES MENDOZA,8.53
CS11004,ALEJANDRA ABIGAIL,CANIZALEZ SANTOS,8.02
RA16004,Joel Antonio,Rosales Alvarado,8.1
PR12005,NICOL,PE,7.75
RB14034,MARLON EDUARDO,RODR,8.98
NA15004,Melanie Carolina,Navarro Alfaro,9.44
PM12003,LUIS EDGARDO,PINO MEL,8.95
FC11023,HECTOR MAURICIO,FUENTES CHICAS,8.1
AR16033,Bryan Josu,Aguilar Rom,7.21
BM11039,ISRAEL DAVID,BAUTISTA MERINO,8.24
MA09040,OSCAR RENE,MERINO AQUINO,7.03
MM14001,BENJAM,MONGE MOR,7.42
CM14066,KATHERINE STHEFANY,CERNA M,7.08
MD12007,SUSANA ESTEFFANY,MENDOZA DELGADO,6.62
PM11071,BEATRIZ DEL CARMEN,PANAME,6.63
NB11001,VALERIA MICHELLE,NOVOA BERNABE,6.1
PM10013,PEDRO LUIS,POZO MONTERROSA,7.68
TC10006,MARLON ALBERTO,TORRES CABRERA,8.47
RS15034,JOS,RIVERA SANTAMARIA,8.15
PV16008,Daniel El,Pineda Villatoro,7.4
FF11020,MARLON ERNESTO,FIGUEROA FUENTES,8.13
CM10024,WALTER ANTONIO,CRUZ MEJIA,7.24
DV14002,EDWIN ENRIQUE,DIMAS VALLE,6.77
HH05045,EDWIN ESAU,HENRIQUEZ HENRIQUEZ,8.04
PM14008,REN,PARADA MEJ,5.73
GS16007,Miguel Enrique,Guti,6.61
VR15004,Alfredo Alexander,Villeda Romero,8.17
AA14010,NATHALY MARCELA,AMAYA AGREDA,7.93
SO06001,VICTOR MANUEL ,SAENZ OSORIO ,7.08
RL16016,Carlos Alberto,Rivera Luna,7.06
AP16007,Joshua Josu,Aguilar Palencia,8.28
UA16002,David Ernesto,Uma,7.98
BG08032,MARIA ESTHER,BERNAL GARCIA,6.72
PO13001,SAMUEL GEOVANNY,PAIZ ORELLANA,8.46
DM15019,Luis Javier,D,6.86
GR07086,NESTOR DANILO ,GARCIA RAMOS ,8.26
GR11061,D,GUARDADO REINOZA,7.37
AR11002,NELSON JOS,ALBERTO RAM,9.22
GH12040,KEVIN ERNESTO,GUZM,7.4
VM02009,MAHALALEEL,VILLALTA MARTINEZ,9.15
FD12003,JOS,FLORES DOM,8.18
GJ13003,OMAR ALEXANDER,GARC,6.93
RG08021,JOSE ALEXANDER,RODRIGUEZ GONZALEZ,7.42
ZD12001,SAMUEL BALMORE,ZEPEDA DO,8.61
BB11004,MARTHA VARINIA,BARAHONA BARILLAS,8.09
MC15005,H,Mart,7.76
JC15003,Mauro Ad,Jovel Cruz,8.59
CP16044,Diego Josu,Carpio Portillo,6.93
MM12212,MARIA LUZ,MENJIVAR MORENO,7.77
VO05021,GERSON GAMALIEL,VANEGA ORTEGA,7.43
RM16049,Gustavo Alberto,Romero Moreno,8.71
MF10006,PEDRO ARNULFO,MONTALVO FUNES,8.14
PG15006,,Peraza Gonz,6.61
VL15016,Damaris Yasmin,Vides Le,6.08
AG14053,LUIS ALEJANDRO,ALAS GONZ,8.51
AH13059,FRANCISCO JAVIER,ALEM,7.05
LV16003,Wendy Tatiana,L,7.63
LA03009,MIGUEL ANGEL,LOPEZ ALFARO,8.02
OV14010,Angel Mauricio,Ordo,7.96
RR13020,LEONEL ENRIQUE,RAMOS RAMOS,7.12
MV16008,Gerardo Ernesto,Merino Vega,6.96
SM16041,Ricardo Alessandro,Sudasassi Merino,5.91
DD07001,SERGIO MARCELO ,DIAZ DIAZ ,7.24
GT13017,HAROLD JEANCARLOS,GUEVARA TORRES,7.68
OM14004,ANDR,ORELLANA MART,6.63
GR14079,C,GONZ,7.58
MV14045,ESTEFANY ELIZABETH,MOLINA VALLE,7.64
HG08005,RUDY ANIBAL,HERNANDEZ GOMEZ,6.98
MS15050,Rodrigo Daniel,Mejia Salazar,6.23
HA15005,Jorge Geovani,Hern,7.8
MF04030,CARLOS JOSUE GREGORIO,MONTANO FIGUEROA,7.76
PM15020,No,Ponce Mart,7.61
FR12001,MAR,FLORES RAMOS,8.46
MR14143,RODOLFO FRANCISCO,MEL,7.42
VP12004,FRANCISCO,V,7.16
MI09008,ARIADNA METZTLI,MIRANDA INTERIANO,9.14
RC13033,PATRICIA MARILY,RINC,7.92
CD15015,Oswaldo Isaias,Cardoza Diaz,7.16
RS15004,Juan Salvador,Ram,6.87
MG09083,IRIS JEANNETTE,MARTINEZ GARCIA,8.21
MT16007,Oscar Enrique,Menj,6.61
MT13013,CARLOS MIGUEL,MENDOZA TICAS,6.8
ML16006,Kilmer Fabricio,Maravilla Lopez,6.76
VM13068,LEONEL VLADIMIR,VENTURA MIRA,6.98
GC14003,GERMAN STEVEN,GRANADOS CRUZ,6.81
AM16025,Sandra Yesenia,Acosta M,8.88
CC06107,FRANCISCO ERNESTO ,CUBIAS ,7.35
HQ14006,AXEL OMAR,HERN,7.05
HV15011,Jos,Hern,8.26
MD12038,OSCAR ERNESTO,MAY,7.26
AM15005,Cristian Edilson,Argueta Medina,7.35
CG15002,Steven Johalmo,Cubas Garcia,8.32
SJ16001,Nelson Alberto,Santacruz Jimenez,6.65
MC10060,SOF,MARROQU,6.34
GC15004,David Edgardo,G,7.81
MC03028,FERNANDO,MEDRANO CHAVARRIA,6.76
OG16003,Diego de Jes,Ochoa Garc,7.34
AM14116,JORGE ALEXANDER,AVALOS MARTINEZ,6.27
HA10007,JOSSELINE ASTRID,HERN,7.87
PH11004,RAFAEL ANTONIO,PINEDA HERN,7.99
CP16012,Carlos Fabricio,Campos P,6.36
RG10037,OSCAR ADONAY,RAMIREZ GUARDADO,7.45
AG09086,INGRID ELIZABETH,AGUILAR GONZALEZ,7.88
LM10002,LUIS NO,L,8.09
DC13018,EDWIN JOS,D,7.83
RR08173,BAYRON FRANCOMAR,RIVERA RIOS,7.79
PP15001,Rub,P,6.75
GR13013,AMBAR MARINA,GIL RODR,8.22
AR13011,KELLY GABRIELA,AGUILAR ROSA,8.13
AP16014,Edwin Joel,Amaya Palacios,7.78
AC13002,RAFAEL ENRIQUE,AVIL,8.13
CH08012,EDWIN ANTONIO,CUELLAR HERRERA,6.93
RC15010,Marvin Sigfredo,Rodriguez Cubias,6.75
AZ05013,VICTOR HUMBERTO,ALVARADO ZACATARES,7.12
NS10001,CARLOS ALBERTO,NOYOLA SANCHEZ,8.62
LQ13003,ERICK ARNOLDO,LEMUS QUIJADA,7.01
SR09012,GUADALUPE ISABEL,SANCHEZ RODRIGUEZ,7.93
TH06008,PABLO JAVIER ,TOBAR HERNANDEZ ,8.89
DM15012,Carlos Dalton,D,7.34
GM15003,Carlos Alfredo,Garc,7.59
NR07005,WILLIAM ALEXANDER ,NAVARRETE RAMOS ,6.1
HR14044,ERIC VLADIMIR,HENRIQUEZ RAMIREZ,7.51
AV16018,Henry No,Avila V,7.63
AA15009,Carlos David,Ascencio Abarca,8.18
LR03012,WALDO ANTONIO,LOBOS RODAS,7.19
VM06030,EDGAR RODOLFO ,VENTURA MERINO ,8.46
GG13113,HENRY IVAN,GODOY GUTIERREZ,8.88
AH16021,Ricardo Antonio,Agreda Hern,8.39
PP16011,Gerardo Wilfredo,Peralta Pinto,7.02
CM16017,Sa,Ch,8.43
GL15002,Jorge Alberto,G,7.72
EH10002,JOSE EDGARDO,ESCOBAR HERN,7.6
FB16004,Jos,Flores Barillas,8.11
MM16110,Jennifer Eunice,Monge Miranda,7.47
GG06010,KARLA RAQUEL ,GUZMAN ,7.88
GH12023,JOSUE ALEXANDER,GOMEZ HENRIQUEZ,7.95
AC09029,DIEGO ALEJANDRO,ALVARADO CACERES,6.8
PG13005,JUAN FRANCISCO,PALACIOS GRANDE,7.73
UE13001,HECTOR ANDONI,UZQUIANO ESCAMILLA,7.3
PG14048,GONZALO DE JES,PALACIOS GONZ,7.29
FN12001,DOUGLAS REN,FIGUEROA NAVARRETE,6.76
VV11041,LUIS MART,VALLE VENTURA,7.74
AS05052,CELY ANABELLA,AYALA SANTOS,7
LR12003,JOS,L,8.18
CM11027,MARIANO DE JESÚS,CUELLAR MORALES,7.76
UM07001,JOSE ERNESTO ,URIAS MOLINA ,9.29
FM16025,Jos,Flores Mariona,7.28
NR15002,Vanessa Carolina,Nu,7.42
BM07022,KARLA ALICIA ,BARRERA MENA ,8.21
HM14005,KENIA,HERN,6.3
RU12002,JAVIER OMAR,RAMOS UMA,7.81
MR06081,ANDREA YOLANDA ,MENA RAMIREZ ,6.59
HD13002,HELDER JOSU,HERN,5.63
MC15011,Ra,Marroqu,8.46
MR13119,LUIS ENRIQUE,MADRID REYES,7.54
RM04104,PAULA AQUILINA,RIVERA MEJIA,6.99
CD10030,MAURICIO ALEXIS,COTO DOMINGUEZ,6.68
VV13010,KARLA MARINA,VILLEGAS VAQUERO,7.5
ML11055,BENNETT EVELIO,MELARA L,6.69
CH11043,WENDY CAROLINA,CRIOLLO HERN,8.07
AH13019,MARVIN ALEXANDER,ALVARENGA HERN,8.33
RG06041,ALDO ARTURO ,RAMIREZ GUTIERREZ ,8.12
LZ14002,JOS,LAGOS Z,8.08
PA15045,Erick Rolando,Palma Alvarado,8.67
CM11005,FERNANDO ERNESTO,COSME MORALES,7.99
VM15018,Bryan Aldair,Villalobos M,6.85
AD10033,JOSELINE GRACIELA,ALFARO DOMINGUEZ,8.13
FD11002,LUIS GERARDO,FIGUEROA DERAS,8.17
PZ05002,ALBERTO ALEXANDER,PORTILLO ZAVALETA,9.25
GC15016,Jos,G,6.18
RA13001,JORGE OTONIEL,RODR,7.55
CV14005,FRANCISCO ANTONIO,CH,7.93
NH12003,Roger Arnoldo,Nieto Hernández,7.57
CR16102,Darwin Antonio,Carrillo Romero,8.6
CV11017,OSCAR ANIBAL,CARRANZA VALIENTE,8.07
MR15113,Juan Jos,Montes Ram,7.36
LS16001,Nathaly Adriana,L,7.54
CN14003,KEVIN ALEXANDER,CHICAS NOLASCO,7.64
DH16001,Jennifer Irene,Delgado Hern,7.35
TS14004,RA,TRIGUEROS SANTAMAR,7.21
BV12004,NOEMY ABIGAIL,BELTR,6.96
NR12002,ERICK ORLANDO,NAVARRO RUIZ,8.05
RE14001,KEVIN ALEXANDER,RODR,8.28
DP11015,CATHERINE IVETH,DÍAZ PLATERO,8.19
JT11001,SAMUEL ENRRIQUE,JOVEL TORRES,7.53
AR11080,KATHERINE MILAGRO,ALFARO RICO,8.15
CR05074,JORGE ALBERTO,CARDOZA RODRÍGUEZ,7.26
HC15005,F,Henr,6.18
AM11098,DARIO ROMAN,ARAYA MOTTO,8
RR16100,Josu,Rosales Ruiz,7.98
SS15005,Ricardo Jonathan,S,8.54
BU03002,FRANCISCO ANTONIO,BARRIOS URIAS,7.12
GE08008,ALEXANDER WILFREDO,GUEVARA ESCALANTE,7.97
HG14034,JULIO C,HERN,7.19
AD06017,JUAN FRANCISCO ,ALDANA DOMINGUEZ ,7.08
SC13014,VLADIMIR ALBERTO,S,6.61
CC13026,JUAN CARLOS,CRUZ DE LA CRUZ,7.89
PE12001,AZAEL DE JES,PONCE EL,7.29
TC16012,Diego Sebastian,Turcios Chavez,7.88
MR16138,Francisco Wilfredo,Mart,6.98
CR11005,FREDY ANTONIO,C,8.44
AV16004,Rosa Esther,Alfaro V,6.66
SM13001,KENDAL ALFONSO,SOSA MONTES,8.17
CG13082,KEVIN JEOVANY,CASTELLANOS GARAY,7.07
SG10003,ANA MERCEDES,S,6.92
CB14026,DENIS SAMUEL,CASTRO BENITEZ,8.21
OG10011,MAURICIO ERNESTO,ORELLANA GONZÁLEZ,7.94
CA99050,ADELINA MARGOTH,COREAS ARRIAZA,7.89
CM13106,IVETH EDELMIRA,CARRANZA MART,7.36
FS10001,DENNIS ALEXANDER,FRAILE SERRANO,7.67
MP09069,SALVADOR ANTONIO,MANZANARES PINEDA,7.23
RM16027,Gustavo Edgardo,Ram,8.63
HP15004,Miguel Angel,Hern,6.98
RC15008,Kevin Mauricio,Ramos Carranza,8.01
MM13067,RA,MAYORGA MARROQUIN,6.52
CV15018,Francisco Daniel,Cortez V,7.59
MV02001,ANGEL AROLDO,MAGA,7.74
GM13021,JUAN JOS,GONZ,7.82
CV03016,MAINOR STANLEY,CORDOVA VASQUEZ,7.73
RG09075,JENNIFER MICHELLE,RODRIGUEZ GUILLEN,7.53
SP11003,ELISSA ESMERALDA,S,8.23
CA13041,HENRY ALEXIS,CORVERA ALVARADO,6.39
AZ14002,DOUGLAS GIOVANNI,ALFARO ZELAYA,6.97
HE12002,GRACE GISSELLE,HERN,6.89
MA12145,TATIANA GISSEL,MIRANDA ARGUETA,7.71
HR11013,JONATHAN ISAAC,HERNÁNDEZ RAMÍREZ,7
CV07003,DARIO EMMANUEL ,CORDOVA VALLADARES ,8.32
GR14004,GLORIA MAR,GANUZA RAM,7.63
MC08027,WILSON JONATHAN,MOLINA CRUZ,6.78
AA16009,William Josu,Ar,6.42
GA11010,ELENA MARISOL,GARC,8.01
RA14006,VER,REYES ALFARO,7.99
CG13003,ALEJANDRA VER,CENTENO GARC,7.05
RL11003,OSCAR JOS,RIVAS LARA,7.79
MD16022,Angel Vladimir,Melara Duran,7.45
PS13001,Gabriel Fernando,Perez Sagastume,8.08
AM09069,CRISTIAN EDGARDO,AGUILAR MENDOZA,8.98
FM10005,CARLOS ALBERTO,FUENTES MARTINEZ,7.77
CO14001,WILLIAM ANTONIO,COTO OLMEDO,7.35
MV13002,SA,MEMBRE,6.81
RM11117,MANUEL ANTONIO,ROSALES MART,8.53
FE09002,AZUCENA EMPERATRIZ,FERNANDEZ ELIAS,7.25
MS10047,LUIS MIGUEL,MENJIVAR SANCHEZ,7.43
AP16001,Diego Antonio,Aguilar Pacheco,8.93
BH09016,JUAN CARLOS,BELTRAN HERNANDEZ,7.33
NM15007,Misael De Jes,Nieto Mendoza,6.86
LC13004,ERICK BRYAN,LOBOS CRUZ,7.73
SM14074,EMERS,SANTOS MIRANDA,6.83
GC10009,GEOVANNY MAURICIO,GUEVARA CRUZ,7.43
SH10024,JONNY IMMER,SANDOVAL HERN,6.93
GD08019,ALBERTO ALDEMARO,GONZALEZ DOMINGUEZ,7.65
AB15010,Idis Nadine,Aguill,7.91
UR08001,JOSE MIGUEL,UMA,8.22
OR15012,Dennis Ernesto,Orellana Ram,7.43
LL13002,ALAM ULISES,L,7.43
CC10018,JOS,CRUZ CORDERO,8.52
RG10011,CARLOS ALFONSO,RODR,8.58
AL05043,CARLOS AECIO,ARIAS LOPEZ,7.73
BC11023,FERNANDO EDUARDO,BOLA,7.82
EA12006,REMBERTO LEONARDO,ESCOBAR ARD,7.57
GA12015,MARIO ABDIEL,GONZALEZ AMBROCIO,7.01
NA10003,GALIA KARINA,NARV,7.43
AP16026,Ismael Antonio,Arg,7.3
GT11003,WILLIAM STANLEY,GARCIA TORRES,6.38
CA14080,GUILLERMO ALEXANDER,CORNEJO ARGUETA,7.45
DM15001,Jonathan Alexander,Dur,7.44
MC11002,CARLA GRACIELA,MARROQU,7.43
CL09034,JOAQUIN ALEJANDRO,CORDOVA LAM,5.61
VN10004,ALEXIS JOSU,V,7.86
PC16011,Jorge Alberto,P,8.54
LR10005,FLOR DE MAR,LOZANO R,7.26
HL04001,VICTOR HUGO,HERNANDEZ LEMUS,7.67
GC16001,Mar,Gil C,8.06
MA10043,FERNANDO HUMBERTO,MEN,7.6
RH16010,Alexander Antonio,Reyes Huezo,6.14
CG11029,Valeria Guadalupe,Campos Gómez,7.11
PM15057,Daniel Eduardo,Pinto Manc,7
RC10050,SIXTO ANTONIO,ROSALES CERON,7.56
QB13002,ROBERTO ANDRÉS,QUINTANILLA BONILLA,6.71
GV12032,WILMER ADALBERTO,GRIJALVA V,7.11
LP10005,IRVIN YOVANY,LEIVA PE,8.65
HM16001,Carlos Alejandro,Hern,7.9
GR16003,Francisca Esmeralda,Guevara Rodr,8.39
CO08007,ELSY BEATRIZ,CAMPOS ORELLANA,7.32
SR12003,FRANCISCO EDENILSON,SORIANO REYES,7.33
SF16002,Jonathan Felix,Solorzano Fuentes,9.07
ME11022,Ricardo Antonio,Merino Escobar,7.44
VL10001,LUIS EDGAR,VALLADARES LEMUS,7.7
RF16003,Ricardo Esteban,Ruano Flores,7.55
VZ04002,JOSUE JOAQUIN,VANEGAS ZAMORA,7.74
ME13001,RONNY EDGARDO,MATA ESCOBAR,8.12
RM15118,Nathaly Adriana,Rodr,8.03
VC10014,Jaime Gabriel,Valle Chacon,7.59
VF11016,RUB,VALLADARES FLORES,9.06
RC10049,STEFHANIE JESZERELITA,RIZO RODRIGUEZ,7.31
QM16001,David Ezequiel,Quiroa Mencos,8.02
RR07047,VICTOR JAVIER,RIVAS RIVERA,7.99
SH12005,Alexander Napole,S,6.99
MC10011,Steven Alberto,Mena Ch,6.84
GP16025,Diego Oswaldo,Garcia Pascacio,7.28
RH07022,JOS,RIVERA HERN,7.9
MC11004,LUIS ERNESTO,MORALES CAMPOS,8.81
LA10006,JOS,LARA AGUILAR,8.15
VV16030,Irvin Ernesto,Velis Villalta,7.67
AS09021,FRANCIS BENJAMIN,ARGUETA SARAVIA,7.71
NG08001,JOSE WILFREDO,NOYOLA GONZALEZ,8.7
GM12006,EDWIN OTONIEL,GUZM,8.37
MG09080,GERSON NEFTALI,MARTINEZ GONZALEZ,8.48
IG15001,Jorge Alberto,Iglesias Garc,7.22
CC11118,KRISSIA KARINA,FRANCO CUCUFATE,6.55
TL11001,Ruth Sarahi,Torrento Lara,8.66
MM08069,JOSE GERARDO,MARMOL MURCIA,8.92
RR13002,MARVIN SANTIAGO,RAM,8.76
MA13021,JORGE OVIDIO,MEJIA ALVARADO,8.54
AR15068,Teobaldo Antonio,Azahar Rold,7.47
MM11015,RODRIGO GEOVANNI,MOR,7.04
SM11077,JONATHAN STEVEN,SANCHEZ MIRA,8.28
GA07043,FERNANDO VINICIO ,GUARDADO AYALA ,8.12
HP12008,CHRISTIAN EDGARDO,HERN,8.8
AL08001,JULISSA SARAI,AVILA LEMUS,6.99
VA10016,JES,VENTURA ARENIVAR,8.5
PR14008,EDUARDO ALFONSO,P,7.3
CA13004,MARIO ERNESTO,CRUZ ALVARADO,7.52
MR14015,MARCELO ALBERTO,MOLINA ROMERO,6.96
MN15008,Carlos Enrique,Merino Navarro,7.05
OG99016,JOSE ANTONIO,OSORIO GUANDIQUE,7.42
PM11008,DANIEL EDILBERTO,P,7.1
GM09032,RODOLFO ESAU,GARMENDIA MENA,8.13
HJ15001,Mauricio Daniel,Hern,8.43
LO10003,JOS,LATIN ORTIZ,8.06
GR97043,HECTOR ANTONIO,GUERRERO REYES,7.02
BS10011,KEVIN ALEXANDER,BELTRÁN SERRANO,7.58
AL14002,JOS,AGUILAR LINARES,8.29
PJ15005,Gerardo Antonio,P,7.6
CD16006,David Alexander,C,7.76
CR09120,ERICK EDUARDO,CAMPOS RIVAS,7.03
HF11011,BRYAN ULISES,HERN,6.73
CL13002,SANDRA VER,CORNEJO L,7.79
BA12026,WILLIAM ALEXANDER,BONILLA ALFARO,7.09
VA13001,IVIS YAMILET,VALLADARES ALFARO,7.54
IV08001,JORGE ROBERTO,IRAHETA VASQUEZ,6.53
MH11066,ELMER ALEXANDER,MEJ,7.37
MA14027,CARLOS ALBERTO,MORENO AR,6.29
GV06003,RICARDO MANUEL ,GARCIA VASQUEZ ,7.23
HM13054,BRYAN ANTHONY,HERNANDEZ MENDOZA,9.17
LC10015,BLANCA MARGARITA,LARA C,8.45
GM16066,Elizabeth Abigail,Gonz,7.26
MV16046,Jonathan Enrique,M,8.44
RG14087,BELLA VANESSA,RODR,7.33
BB11003,JONATHAN ALEXANDER,BAUTISTA,8.05
MP10081,GIOVANNI ALIRIO,MENJIVAR PINO,6.82
RF14014,CARLOS FRANCISCO,RIVAS FUENTES,7.39
BM10009,MARLON IV,BERM,7.46
DI08001,JAIME FERMIN,DONADO IRAHETA,7.35
BA03027,JULIO CESAR,BRIZUELA ALVARADO,7.66
HS15018,Elmer Alexander,Hern,6.93
SM05031,MARIANA RAQUEL,SANDOVAL MORAN,8.31
AA13032,Kevin Ernesto,Argueta Ayala,8.68
EH04001,ADILIO ANTONIO,ESCOBAR HERNANDEZ,6.16
AH12002,FERNANDO MOIS,AGUILAR HUEZO,8.28
HP08005,LUIS ERNESTO,HERNANDEZ PEREZ,7.5
MC09084,ARMANDO ENRIQUE,MENDOZA CARRANZA,7.24
AM12048,CRISTIAN REYMUNDO,ALDANA M,7.43
HH14028,JOSE DANIEL,HENRIQUEZ HERNANDEZ,7.99
MS16035,Oscar Armando,Melara Sandoval,8.19
HR13017,FRANCISCO ANTONIO,HERN,7.95
TH16002,Stanley Alberto,Tamayo Hern,8.25
RF12011,RICARDO SALVADOR,RIVAS FRANCO,7.03
MM14030,CRISTIAN VLADIMIR,MEL,6.93
IC14002,ENMANUEL ENRIQUE,IRAHETA CERNA,6.64
SV15002,Edgar Mauricio,Soriano V,7.57
RC16018,Alexis Eduardo,Rivera Ch,8.32
GR14017,F,GUEVARA RODR,7.69
AS13053,ALVARO ALEXANDER,AYALA SERRANO,7.28
CL16010,Oscar Armando,Castillo Lemus,8.42
SV08008,DEBORA STEFANIE,SERPAS VIDAL ,8.3
PB16009,Ramon Eduardo,Parada Baires,8.44
SA16032,Kevin Arnoldo,Salazar Abrego,9.28
HC15019,Irvin Jonathan,Hern,8.22
VM11009,NEREYDA HASSEL,VENTURA MEJ,9.52
LA13042,ALBERTO JOS,L,7.43
SD13010,TOBIAS ALEXANDER,SANTAMARIA DIAZ,9.2
SF09006,BRYAN ERNESTO,SARMIENTO FLORES,7.44
MZ12005,JUAN CARLOS,MARTÍNEZ ZAMBRANO,7.36
HJ13003,MELVIN ULISES,HERRERA JIR,7.74
MS12010,CHRISTIAN ROBERTO,MONTERROSA SURIO,8.38
MZ16005,Jordy Vladimir,Martinez Zavala,8.88
CR15089,Andrea María,Calzadilla Ramos,8.02
SV12001,FERNANDO JOS,SALGUERO VALLADARES,8.84
RC08070,IRWIN JOSE,RUIZ CRUZ,6.11
MO10003,EMERSON DAVID,MENDOZA OSORIO,8.25
AV15015,Efrin Alexander,Aguilar V,7.62
CM14023,KILMAR ALEXIS,CALDER,7
MR16003,Walter Ren,Mart,7.53
EO97003,ALEXANDER ENRIQUE,ESCOBAR ORTIZ,9.32
LV10022,WALTER OSWALDO,LEMUS VASQUEZ,7.15
PC06009,NESTOR GIOVANNY ,PEREZ CASTANEDA ,7.71
JB13004,WILLIAM ALEXANDER,JAIMES BONILLA,6.88
GM08063,WALTER ALEXANDER,GONZALEZ MARTINEZ,6.86
CC14025,F,CARPIO CARDONA,7.83
CA05085,JERSON DAVID,CABRERA ALEMAN,7.22
ZT12002,CHRISTIAN ARIEL,ZELAYA TEJADA,7.75
NS12002,ELIEZER OTONIEL,NAVARRO SANTIAGO,8.13
PH12014,MARVIN VLADIMIR,P,7.58
CE12006,ELSY MARGOTH,CASTRO ECHEVERR,7.46
VP03021,JOSE ALBERTO,VILLANUEVA PEREZ,7.57
MM15108,KEVIN ALEXANDER,MONTES MANC,6.88
RF11025,Virginia Elizabeth,Ramírez Fuentes,6.92
MG15009,Roberto Orlando,Marroqu,8.18
VP10007,EDWIN ALEXANDER,VENTURA P,7.18
SC08010,JAIME LEONARDO,SUNCIN CRUZ,7.08
SM05083,MARVIN ROLANDO,SEGURA MENJIVAR,7.2
YM15001,Luis Armando,Yanes Mart,7.46
MA12013,KATIA MAR,MARROQU,7.49
ZP12001,JESSICA MARCELA,ZAVALETA PADILLA,7.21
AA09123,JOSUE MOISES,ALVARENGA AQUINO,8.09
EA13003,JOS,ESCOBAR ALBERTO,7.97
FV16005,Marco Antonio,Flores Ventura,6.44
SM08031,OSCAR LEONARDO,SERPAS MARTINEZ,7.64
LM12013,OSIRIS ALEXANDER,LOVOS MOLINA,8.33
MG13012,FREDERICK JOSU,MEJ,8.68
AG09071,CARLOS FIDEL,ACATALES GIL,8
GV09031,SILVIA LISSETTE,GUZMAN VASQUEZ,7.45
GM13015,SAMUEL EL,GARAY MENJ,7.57
SM06052,HECTOR MANUEL ,SOSA MORENO ,7.84
GA01050,ELIZABETH LORENA,GUTIERREZ ALAS,7.07
PP04069,RONALD ANTONIO,PORTILLO PONCE,7.28
RG12019,YESENIA ELIZABETH,RODR,7.96
GG13013,ANA MICHELLE,GUZM,5.92
HR07002,SARA VERONICA ,HERNANDEZ RODRIGUEZ ,5.91
CH15013,Oscar Emmanuel,Cordero Hern,7.98
RG09042,KAREN STEPHANIE,ROMERO GALDAMEZ,8.12
ME12007,EMERSON ADALBERTO,MART,7.62
ZA00002,WILLIAM ALEXANDER,ZAVALA ARENIVAR,6.27
FB15001,H,Figueroa Berm,7.47
RD12004,NELSON ORLANDO,RIVERA DÍAZ,8.06
MV09033,DIEGO RUDEL,MONTERROZA VANEGAS,8.72
MM05221,OSCAR ARTURO,MORALES MACHUCA,7.72
RE05032,WILFREDO EDGARDO,RAMOS ESCOBAR,8.05
RS16005,Roberto Jose,Rodas Serrano,7.15
RC11016,ISMAEL ALEJANDRO,RAM,7.53
VR12015,JESSICA ESMERALDA,VIDES ROMERO,7.26
HV13023,Roberto Carlos,Hernández Vázquez,7.01
UB16002,Kevin Neftali,Urriola Barahona,7.99
CA14003,LUIS JOSE,CARDENAS AMAYA,8.28
FL15005,Oscar Alberto,Flores Lara,7.55
GM14114,CRISTIAN VIDAL,GARC,7.96
GO11001,CHRISTIAN ALBERTO,GARCIA ORD,7.36
CG09104,VANESSA ELENA,CAMPOS GARCIAGUIRRE,6.74
DC16009,Juan Pablo,D,6.84
CB15012,Jos,Cruz Barrera,7.27
VR16021,Carlos Alonso,Vasquez Rodriguez,7.06
VP12009,MARIO JOS,VIDES PADILLA,7.49
HP11018,MAURICIO ANTONIO,HERN,8.28
AG02007,GUERY SALVADOR,ALAS GUARDADO,8.66
LH10007,JONAT,L,8.55
RR16033,Stefany Lisseth,Ruiz Rodriguez,7.54
CV16047,Josue Ezequias,Carpio Vasquez,6.54
GN06001,SERGIO GUSTAVO ,GALVEZ NAJARRO ,7.01
MD13017,BRYAN HUMBERTO,MAR,7.55
HS15019,Angela Michelle,Huezo Shente,8.46
RG12001,EDGARDO JOS,RAM,8.36
PP08016,BLANCA VERONICA,PALACIOS PEREZ,8.03
OM11003,MILTON ERNESTO,ORELLANA MART,6.98
LJ16001,Miguel Alejandro,L,6.95
GL11029,LORENA VER,GARC,6.78
MM16049,Kennya Elizabeth,Mel,8.18
AV16002,Manuel Antonio,Alvarado Villalobos,8.42
RT13020,Brayan Josu,Rivas Ticas,7.95
CA12013,ALEX WILFREDO,CR,6.72
HM13002,KATYA YANIRA,HERRERA M,7.08
RA14009,JOS,RIVAS AR,7.48
GM11101,WILLIAM ALFREDO,GARCIA MORAN,7.52
HC11047,JAIRO ANTONIO,HERN,7.66
AB10009,V,ARREAGA BORJA,8.88
GM12021,KEVIN CHRISTOPHER,GARC,6.55
JC16009,Ellison Lex,Jim,8.11
RN15006,Eduard Steven,Rivas Navas,6.37
CS16008,Jos,Castro S,8.21
ZM12001,JUAN DIEGO,ZAVALETA MEJ,8.12
MI13002,NESTOR LEONARDO,MORATAYA IRAHETA,8.07
MR09090,JULIO CESAR,MARTINEZ ROSALES,6.77
RC10116,Joseline Alicia,Rodr,6.52
HH12013,Enrique José,Henríquez Bermúdez,7.9
BA12008,JONATAN JOSUÉ,BORJA ALVARENGA,7.36
SR14042,VLADIMIR ANTONIO,SORIANO RIVAS,8.96
AA12031,ROBERTO JAVIER,ANGEL ARAG,8.99
NR14003,CARLOS MISAEL,NOYOLA RIVERA,7.45
HA10046,JIMMY ISAAC,HERN,7.28
AO08005,FRANCISCO EDUARDO,ANAYA ORTEZ,7.01
VJ10004,WALTER ENRIQUE,VELIS JAIMES,7.35
MC09130,SALVADOR VLADIMIR,MARTINEZ CHICAS,7.34
RP10036,OSCAR MANUEL,RODR,7.18
MB13002,MELISSA GABRIELA,MEL,6.79
BC08013,OSCAR MANUEL,BATRES CASTRO,6
AB12010,KEVIN ELISEO,AREVALO BELTRAN,7.68
AA06017,MIGUEL ENRIQUE ,AGUSTIN ALVAYERO ,9.53
DB12003,ERICK JOS,DOM,9.1
RG12009,ANDR,RODR,7.72
CL10004,CARLOS ERNESTO,C,6.66
MM11221,ELMER ALEXANDER,MELGAR MEJIA,7.98
RR10019,SANTOS ISMAEL,RECINOS RECINOS,8.26
PH12010,JENNIFER VANESSA,PREZA HERN,7.59
MA13018,CHRISTIAN GABRIEL,MU,7.94
GS16018,Flor de Mar,Gil Serrano,8.39
AU16007,Sergio Antonio,Ayala Urquilla,7.58
AA14067,JULIO ADALBERTO,AVELAR AGUIRRE,7.31
GV12006,CHRISTIAN JONATHAN,GUILL,9.41
MH09042,Ricardo Danilo,Medrano Hern,6.22
AA13006,MARCELO JOSU,ALC,7.72
CS12016,DOUGLAS MAURICIO,CA,7.34
BL16001,Josu,Baires Lara,6.26
CP12007,KAREN VANESA,CARDONA P,8.28
SS06004,MARIO SERGIO ,SANCHEZ SANCHEZ ,7.63
GG06011,IRIS YAMILETH ,GARCIA ,8.17
RL16024,Jos,Rivera L,7.66
DF09003,OSCAR JOSUE,DIAZ FABIAN,6.68
LH15004,C,L,7.75
CM15044,Bernardo Antonio,Cortez Mej,7.37
AR14019,KARLA MAR,ABREGO REYES,8.88
CS00021,LUIS ENRIQUE,CERON SIBRIAN,8.11
CR10023,MIGUEL ANGEL,CORTEZ RIVAS,8.67
VM15017,Oscar Roberto,Vides Mendez,5.93
NA15005,Erika Yasm,Navas ,8.12
VG14004,ZOILA YANETH,VILLATORO GARCIA,6.96
RS11043,LUIS ENRIQUE EMMANUEL,REYES SALAZAR,7.98
JN15001,Marco Antonio,Jovel Nochez,7.71
FN15002,Gerardo Jos,Figueroa N,7.02
LA04016,ALEXANDER JOSUE,LOPEZ ALVARADO,7.49
RO10003,MELVIN IV,REYES ORTIZ,8.07
CC16063,Carlos Eduardo,Cornejo Castillo,9.13
NF12001,SAMUEL ALEXANDER,NU,8.26
PS14031,DOUGLAS WALBERTO,PALMA SERRANO,8.46
MC13014,GERARDO JOSE,MENDOZA CASTRO,7.99
LG15009,Josue David,L,6.4
DR12004,YOHALMO ALEXANDER,D,7.58
MH16022,Gerardo Antonio,Medina Huezo,7.95
GG10013,JUAN CARLOS,G,7.8
PC12016,MIGUEL ENRIQUE,PE,6.68
AR14044,REYNALDO NATANAEL,ALVARENGA RODRIGUEZ,6.95
EL16002,Ricardo Bladimir,Estupini,7.65
MG12004,NESTOR ULISES,MOLINA GARC,7.02
LC12017,CARLOS ENRIQUE,LOPEZ CASTILLO,7.15
GE14002,JOS,GARC,7.15
AA11002,DORIS ELIZABETH,AQUINO ALAS,7.99
MG14006,LILIAN PATRICIA,MART,7.38
MS15053,Wilbert Ulises,Menjivar S,6.97
DA99003,RUBIA LORENA,DEL CID AYALA,7.44
OA09020,IRVING VLADIMIR,OLIVA AVELAR,8.7
HM10008,MIGUEL ALFREDO,HERN,7.94
EO11002,WALTER ERNESTO,ESPINOZA ORTIZ,8.7
GL08004,ISAAC STANLEY,GUILLEN LEON,7.47
GH06007,EUFEMIA ELIZABETH ,GARCIA HENRIQUEZ ,7.4
UR12003,ITALO ALEXANDER,UMA,7.54
MJ09016,MIGUEL STANLEY,MARTIR JORGE,7.4
PA13003,FRANKLIN ALEXIS,P,7.71
PO15003,Marcos Alexander,Parrillas Orellana,7.41
PS16010,Jorge Rafael,Pe,7.95
GS13003,EDWIN BALTAZAR,GUTI,6.46
PM11074,RUDDY ALFREDO,P,7.47
SS14030,GUILLERMO ANTONIO,SAMAYOA SALINAS,7.61
LP14005,EDWIN ALEXANDER,LEIVA PEREZ,7.11
MM14104,ERIKA MELISSA,MART,7.28
RG10035,JOS,RIVAS GUEVARA,6.6
OR14008,FRANCISCO ARNOLDO,ORELLANA REYES,7.99
AM16004,Diego Enrique,Amaya Mazorra,8.39
FM16006,Naun Enrique,Flores Menjivar,8.37
OZ09001,DENNYS MIGUEL ANGEL,ORELLANA ZEPEDA,6.65
MR15011,Sergio Enrique,Mart,7.97
RH07008,ROSA GUADALUPE ,RODRIGUEZ HUEZO ,7.9
PC07003,FRANCISCO ANTONIO ,POLANCO CASTILLO ,7.89
MR11139,CARLOS REN,MART,7.54
GT11008,ALFONSO ALEXANDER,GUILLEN TORRES,8.45
MV09055,OSCAR APARICIO,MARTINEZ VENTURA,6.92
MA09121,DENISSE YASMARA,MEJIA AGUILLON,8.29
GM16068,Oscar Alejandro,Gonz,7.29
HC11009,STEPHANIE ALEJANDRA,HERN,9
AH11042,AN,ALAS HERN,7.48
GC13025,DANNIER LEONIDES,GALICIA CHINCHILLA,7.95
HC08022,NELSON ALEXIS,HERNANDEZ CEA,7.21
CB14032,JOS,CHAC,6.87
RM11014,KEVIN EDGARDO,RIVERA MART,7.34
RP16052,Carlos Eduardo,Renderos Portillo,7.15
JH12003,KEIRY ANTHONI,JUSTINIANO HERNAND,8.06
GR11057,JONATHAN ALEXANDER,G,7.77
MD77003,GUILLERMO,MEJIA DIAZ,8.43
PT11007,OSCAR RA,PLEITEZ TRUJILLO,8.47
QT12001,JOS,QUINTANILLA TICAS,6.07
MS12016,DELMY STEFANY,MENJIVAR SANDOVAL,5.78
MC13007,JAIME ERNESTO,MEJ,6.9
HM11001,DORIS GABRIELA,HERN,7.9
LQ12001,ALEXIS ALBERTO,LOPEZ QUIJADA,8.02
GJ14013,SAMUEL DE JES,GARC,7.79
CL07001,CESAR MIGUEL ,CHAVEZ LINARES ,8.06
OS10004,JUAN JOS,OLMEDO SAAVEDRA,7.54
VV12033,MERCEDES RAQUEL,VEL,6.87
TF14001,ROBIN ALCIDES,TOLOZA FAUSTINO,7.67
GM14032,JENNIFFER ROXANA,GRANADOS MEJ,7.9
LM10001,RIGOBERTO AGUSTIN,L,9.07
CM10074,MARVIN VLADIMIR,CRUZ MARTINEZ,8.13
OR15002,Manuel Enrique,Ochoa Romero,8.45
SA16007,Ronald Antonio,Serme,5.9
BV13003,EL,BARRERA VEL,8.41
MT11012,NELSON JOSUE,MU,8.07
MG16046,Rony Josue,Martinez Garcia,8.19
DP10004,CARLOS ALBERTO,D,8.02
LV14004,DANIEL ISAAC,LINO VILLACORTA,7.15
MM09255,MIGUEL ANGEL,MARTINEZ MOREJON,8.54
MS09065,JOSUE STANLEY,MALDONADO SORIANO,8.35
BA12003,BERTHA MAR,BELTR,8.16
SZ14001,JOSSELYN PATRICIA,SOLANO ZELAYA,7.42
MG12012,CLAUDIA PATRICIA,MART,8.73
NN13002,REYNALDO ESA,NAVARRO NAVARRO,6.27
GR11058,JOS,GALD,7.84
OP15012,Armando Efrain,Orellana Perez,7.63
CA14002,CARLOS ANTONIO,CATIVO ARGUETA,7.78
BB09011,MARCOS TULIO,BORJA,7.24
AH15035,Agustin Antonio,Ascencio Hern,7.75
GS00029,MIGUEL ANGEL,GUTIERREZ SANDOVAL,8.73
CF15025,Jos,Cubias Flores,7.64
SB12002,EDUARDO RAFAEL,SERRANO BARRERA,6.26
PS13003,JOSU,PORTILLO SALMER,6.35
PG15012,Gerson Wilfredo,Palacios Giron,7.36
FV16002,Salvador Alonso,Figueroa V,7.65
RR16121,Carlos Ernesto,Romero Rivera,7.48
GG05132,KELVIN ALEXANDER ,GARCIA GONZALEZ ,6.56
SF08005,MILTON ALEXANDER,SOSA FIGUEROA,6.63
TG10008,OSCAR RAM,TURISH GUARDADO,8.47
OL97003,SERGIO OSMIN,ORELLANA LAINEZ,7.13
AD08026,FIDEL ALEXANDER,ALFARO DOMINGUEZ,8.5
VM03014,ELIAS ALEXANDER,VELASCO MAYEN,6.23
HM13053,ANTHONY ERNESTO,HERN,6.39
BE10003,Marcos Mauricio,Barrera Escobar,7.98
DD04006,JOSE OSWALDO,DE LA CRUZ DE LA O,7.54
ZG11004,CARLOS VÍCTOR,ZAUN GÓMEZ,7.24
CS08004,SALVADOR DE JESUS,CHACON SANCHEZ ,6.08
AR11082,HUGO ERNESTO,ARGUETA RAMOS,8.92
PP10005,FRANCISCO WILFREDO,POLANCO PORTILLO,6.71
UL10002,ROXANA GERALDINA,URQUILLA LOPEZ,8.12
GE11002,FRANCISCO EVERARDO,G,7.64
MM14074,DIEGO ALFREDO,MOLINA MOLINA,7.68
QR11007,WALTER ALEXANDER,QUINTANILLA RU,7.13
ML09020,VICTOR MANUEL,MARTINEZ LOPEZ,7.46
TC10010,FRANCISCO ANTONIO,TICAS CHAVEZ,7.76
ZF09001,JOSE ALEX,ZEPEDA FIGUEROA,6.83
JR12005,JOS,JIM,8.49
MH08011,MILTON JOSUE,MARTINEZ HERNANDEZ,8.25
JD14004,KEVIN ARNOLD,JURADO DELGADO,6.95
IG14001,CARLOS EMERSON,IRAHETA GARC,8.07
JM16006,Gerson Ronaldo,Ju,8.04
PR15033,Mois,Portillo Ramos,8.11
RR14059,SALVADOR ENRIQUE,RAMOS RODR,6.73
PU16001,Nelson Amilcar,Pleitez Urrutia,6.93
MG16039,Castillo Hern,M,7.73
GS00033,BRENDA ELIZABETH,GALDAMEZ SANDOVAL,7.16
CC02023,WENDY ELIZABETH,CARCAMO CHAVEZ,7.84
LP15004,Walter Baudilio,Luna Pe,7.54
VR09011,EDWIN ENRIQUE,VICHE RIVAS,8.28
AA06029,VLADIMIR STANLEY ,ALVAREZ ALVARADO ,6.8
LG16008,Mario Miguel,Lima Gonzalez,6.23
PZ08002,MARVIN RAYMUNDO,PINTO ZETINO,7.85
OG11023,JEFFRY LEONEL,ORANTES G,8.16
MR16016,Diego Marcelo,Manzano Rivas,7.5
SC12016,CINDY ELIZABETH,SOTO CASTILLO,6.7
AM15002,Luis Alonso,Alvarenga Meza,7.04
DC06006,DAVID JOHALMO,DIAZ CHACON ,8.43
GH08026,RAFAEL ANTONIO,GUZMAN HERNANDEZ,7.92
JP16001,C,Jurado P,7.33
RS16007,Nancy Lisseth,Ramirez Servellon,7.81
CC09133,GERARDO ENRIQUE,CAMPOS MARTINEZ,6.79
AR13004,ARNULFO JOS,AGUILAR RAMOS,7.75
OA14007,CRISTIAN ALEJANDRO,OSEGUEDA AGUILAR,8.84
AG11012,ROXANA MERCEDES,ANGULO GARC,7.88
DM09024,KARINA LISSETTE,DIAZ MENDEZ,7.66
FA10030,JOEL ALEXANDER,FLORES ALVARADO,7.68
CR09036,FRANCISCO OVIDIO,COLORADO RIVERA,8.74
MI10001,DINA SOF,MART,7.94
BR14003,MARVIN OSVALDO,BARAHONA RAM,7.54
LV14005,JONATHAN ALEXANDER,LA,9.2
ES16014,Diana Sara,Escobar Serrano,8.9
GV12003,Milton Santiago,García Vásquez,8.43
SH09011,IRVIN IVAN,SANDOVAL HERNANDEZ,7.52
GR10010,ROXANA ELIZABETH,GUZM,7.98
LL08027,JHONY WILLIAM,ROGEL LOPEZ,7.93
PU11001,KEVIN ANDERSON,P,6.77
BG10002,KEVIN EDUARDO,BOLA,7.97
DR98011,RENE FRANCISCO,DIAZ ROMERO,7.78
SO15008,Ariel Alexander,Sigar,7.58
ML13015,KEVIN EVELIO,MELARA L,7.44
MR14137,IRVIN EMIL,MORALES RUIZ,6.49
MF11043,BRENDA CAROLINA,MARTINEZ FLORES,6.06
BR14005,ESPERANZA AREL,BONILLA RAMOS,7.93
NR08006,IVIS YOSSELIN,NAVARRO RAMIREZ,6.56
EM15001,Katlheen Liliana,Escoto Montano,7.2
MM09258,EMILIO ERNESTO,ALVARENGA MURCIA,7.62
VV10031,EDWIN JOSUE,VELASCO RIVAS,7.67
CC15043,Jennifer Tatiana,Cruz Castro,7.71
HC09025,NOEL ANTONIO,HIDALGO CASTELLANOS,6.49
TA14008,JOSUE ALFONSO,TORRES ARTIAGA,7.69
AR09062,ROXANA ESMERALDA,APARICIO RAMIREZ,8.35
ZV10001,JOS,ZELAYA V,6.69
RM16035,William Ernesto,Rosales Morales,8.21
CC12035,MELVIN GUILLERMO,CRUZ CARRANZA,9.57
MC16006,Carlos Rolando,Mor,6.76
MV12056,ALFREDO JOSÉ,MARTÍNEZ VÁSQUEZ,7.53
AA10013,LUIS ALEXANDER,AQUINO AVENDA,6.72
SC16001,Jorge Alberto,Sibrian Castro,7.75
VE16005,Jorge Mauricio,Vides Escobar,7.49
GR15059,Gabriela Alejandra,Garc,8.47
CD13001,LUIS MIGUEL,CORTEZ DOMINGUEZ,8.32
FG12026,Henry René,Fuentes Gutiérrez,8.24
CF07030,ROBERTO JOSIMAR ,CAMPOS FLORES ,8.75
GR15064,Carlos Gustavo,Gomez Romero,8.4
CZ13016,QUEVIN ALEXIS,CALLEJAS ZAVALA,6.79
BL16005,Daniel Alberto,Ba,8.58
SR13002,BRALLAN ALEXANDER,SANCHEZ ROSALES,7.26
DH15007,Harold Mauricio,D,7.17
PD11022,KARLA CRISTINA,POSADA DÍAZ,6.96
PA13014,KEVIN STANLEY,POSADA ALEGR,8.7
JC16004,Jos,Ju,8.54
IA11003,JORGE LUIS,IRAHETA ALVARENGA,7.44
HM05072,SALVADOR ANTONIO,HERNANDEZ MEJIA,6.86
HC16041,Jos,Hern,7.16
CG11017,ABRAHAM ISA,CRUZ GRANDE,7.08
FC08009,JORGE LUIS,FLORES CAJINA,8.03
NM14001,VICTOR EDGARDO,NAVARRETE M,6.2
AB15002,Josu,Aquino Barrera,8.96
MA10016,DANIEL ENRIQUE,MORALES ALFARO,6.51
NR12007,CRISTINA BRENDALY,NAVAS RAMOS,9
